{
  "project_info": {
    "project_number": "699529068759",
    "firebase_url": "https://fir-grocery-d0515.firebaseio.com",
    "project_id": "fir-grocery-d0515",
    "storage_bucket": "fir-grocery-d0515.appspot.com"
  },
  "client": [
    {
      "client_info": {
        "mobilesdk_app_id": "1:699529068759:android:e37f2f7ea1a64382",
        "android_client_info": {
          "package_name": "com.suresh.firebasegrocery"
        }
      },
      "oauth_client": [
        {
          "client_id": "699529068759-3jpenolvcemmpijnonc3k0k67dcrgnt3.apps.googleusercontent.com",
          "client_type": 1,
          "android_info": {
            "package_name": "com.suresh.firebasegrocery",
            "certificate_hash": "c2db582a5d611cced7f79b1fbae99c09ef563115"
          }
        },
        {
          "client_id": "699529068759-m7g9raob5eqtfvvqsqik4o9ca54t5ue1.apps.googleusercontent.com",
          "client_type": 3
        }
      ],
      "api_key": [
        {
          "current_key": "AIzaSyDFoA47lImLoFEXufnxBQw9CsjKfnk_k1E"
        }
      ],
      "services": {
        "appinvite_service": {
          "other_platform_oauth_client": [
            {
              "client_id": "699529068759-m7g9raob5eqtfvvqsqik4o9ca54t5ue1.apps.googleusercontent.com",
              "client_type": 3
            }
          ]
        }
      }
    }
  ],
  "configuration_version": "1"
}